<svg width="21" height="21" viewBox="0 0 21 21" fill="none" xmlns="http://www.w3.org/2000/svg">
<path d="M10.5 0C4.7 0 0 4.7 0 10.5C0 16.3 4.7 21 10.5 21C16.3 21 21 16.3 21 10.5C21 4.7 16.3 0 10.5 0ZM10.5 15.4C7.8 15.4 5.6 13.2 5.6 10.5C5.6 7.8 7.8 5.6 10.5 5.6V10.5H15.4C15.4 13.3 13.2 15.4 10.5 15.4ZM16.1 9.8H11.2V4.9C14 4.9 16.1 7.1 16.1 9.8Z" fill="#5C7D92"/>
</svg>
