<svg width="45" height="45" viewBox="0 0 45 45" fill="none" xmlns="http://www.w3.org/2000/svg">
<path d="M22.5 0C10.0714 0 0 10.0714 0 22.5C0 34.9286 10.0714 45 22.5 45C34.9286 45 45 34.9286 45 22.5C45 10.0714 34.9286 0 22.5 0ZM22.5 33.8571C18 33.8571 14.3571 30.2143 14.3571 25.7143C14.3571 24.4286 14.5714 23.3571 15.2143 22.2857C15.2143 22.0714 15.4286 21.8571 15.6429 21.6429C15.8571 21.4286 15.8571 21.2143 16.0714 21L22.0714 11.5714C22.0714 11.5714 22.0714 11.3571 22.2857 11.3571C22.5 11.1429 22.9286 11.3571 23.1429 11.5714L29.3571 21.2143L29.5714 21.4286C29.7857 21.6429 29.7857 21.8571 30 22.2857C30.4286 23.3571 30.8571 24.6429 30.8571 25.7143C30.6429 30.2143 27 33.8571 22.5 33.8571Z" fill="#40BAFF"/>
</svg>
